{"failedCount":0,"prefixedPath":"classpath:regresin\/users\/usersTests.feature","packageQualifiedName":"regresin.users.usersTests","loopIndex":-1,"relativePath":"regresin\/users\/usersTests.feature","scenarioResults":[{"sectionIndex":0,"stepResults":[{"result":{"nanos":68887500,"millis":68.8875,"status":"passed"},"step":{"background":true,"line":4,"prefix":"*","index":0,"text":"def requiredId = 11"}},{"result":{"nanos":813600,"millis":0.8136,"status":"passed"},"step":{"background":true,"line":5,"prefix":"*","index":1,"text":"def pageNumber = 2"}},{"result":{"nanos":936200,"millis":0.9362,"status":"passed"},"step":{"background":true,"line":6,"prefix":"Given","index":2,"text":"url \"https:\/\/reqres.in\/api\/\""}},{"result":{"nanos":364500,"millis":0.3645,"status":"passed"},"step":{"background":true,"line":7,"prefix":"And","index":3,"text":"path \"users\""}},{"result":{"nanos":14081200,"millis":14.0812,"status":"passed"},"step":{"line":10,"prefix":"And","index":0,"text":"param page = pageNumber"}},{"result":{"nanos":588283000,"millis":588.283,"status":"passed"},"step":{"line":11,"prefix":"When","index":1,"text":"method get"},"stepLog":"14:13:37.691 request:\n1 > GET https:\/\/reqres.in\/api\/users?page=2\n1 > Host: reqres.in\n1 > Connection: Keep-Alive\n1 > User-Agent: Apache-HttpClient\/4.5.13 (Java\/1.8.0_161)\n1 > Accept-Encoding: gzip,deflate\n\n\n14:13:38.012 response time in milliseconds: 318\n1 < 200\n1 < Date: Sat, 12 Mar 2022 14:13:38 GMT\n1 < Content-Type: application\/json; charset=utf-8\n1 < Transfer-Encoding: chunked\n1 < Connection: keep-alive\n1 < X-Powered-By: Express\n1 < Access-Control-Allow-Origin: *\n1 < Etag: W\/\"406-ut0vzoCuidvyMf8arZpMpJ6ZRDw\"\n1 < Via: 1.1 vegur\n1 < Cache-Control: max-age=14400\n1 < CF-Cache-Status: HIT\n1 < Age: 1218\n1 < Expect-CT: max-age=604800, report-uri=\"https:\/\/report-uri.cloudflare.com\/cdn-cgi\/beacon\/expect-ct\"\n1 < Report-To: {\"endpoints\":[{\"url\":\"https:\\\/\\\/a.nel.cloudflare.com\\\/report\\\/v3?s=%2F0MsBubaTtCfkb42ADGB58s0zYsprywRJNo3pdCa1tU7ThHABcDg%2BgVIiLDlsozMO37yXYMGU%2FN4DLzytys5iMGZq6amALb3XKSj2MiPwqtfHLzUz9eRAiAW65s%3D\"}],\"group\":\"cf-nel\",\"max_age\":604800}\n1 < NEL: {\"success_fraction\":0,\"report_to\":\"cf-nel\",\"max_age\":604800}\n1 < Vary: Accept-Encoding\n1 < Server: cloudflare\n1 < CF-RAY: 6ead21b09b983312-CDG\n1 < alt-svc: h3=\":443\"; ma=86400, h3-29=\":443\"; ma=86400\n{\"page\":2,\"per_page\":6,\"total\":12,\"total_pages\":2,\"data\":[{\"id\":7,\"email\":\"michael.lawson@reqres.in\",\"first_name\":\"Michael\",\"last_name\":\"Lawson\",\"avatar\":\"https:\/\/reqres.in\/img\/faces\/7-image.jpg\"},{\"id\":8,\"email\":\"lindsay.ferguson@reqres.in\",\"first_name\":\"Lindsay\",\"last_name\":\"Ferguson\",\"avatar\":\"https:\/\/reqres.in\/img\/faces\/8-image.jpg\"},{\"id\":9,\"email\":\"tobias.funke@reqres.in\",\"first_name\":\"Tobias\",\"last_name\":\"Funke\",\"avatar\":\"https:\/\/reqres.in\/img\/faces\/9-image.jpg\"},{\"id\":10,\"email\":\"byron.fields@reqres.in\",\"first_name\":\"Byron\",\"last_name\":\"Fields\",\"avatar\":\"https:\/\/reqres.in\/img\/faces\/10-image.jpg\"},{\"id\":11,\"email\":\"george.edwards@reqres.in\",\"first_name\":\"George\",\"last_name\":\"Edwards\",\"avatar\":\"https:\/\/reqres.in\/img\/faces\/11-image.jpg\"},{\"id\":12,\"email\":\"rachel.howell@reqres.in\",\"first_name\":\"Rachel\",\"last_name\":\"Howell\",\"avatar\":\"https:\/\/reqres.in\/img\/faces\/12-image.jpg\"}],\"support\":{\"url\":\"https:\/\/reqres.in\/#support-heading\",\"text\":\"To keep ReqRes free, contributions towards server costs are appreciated!\"}}\n"},{"result":{"nanos":17100,"millis":0.0171,"status":"passed"},"step":{"line":12,"prefix":"Then","index":2,"text":"status 200"}},{"result":{"nanos":35346900,"millis":35.3469,"status":"passed"},"step":{"comments":["# Assertions"],"line":15,"prefix":"And","index":3,"text":"match response.page == pageNumber"}},{"result":{"nanos":1261400,"millis":1.2614,"status":"passed"},"step":{"line":16,"prefix":"And","index":4,"text":"match response.data == \"#array\""}},{"result":{"nanos":3120400,"millis":3.1204,"status":"passed"},"step":{"line":17,"prefix":"And","index":5,"text":"match response.data contains deep {\"id\": \"#(requiredId)\"}"}},{"result":{"nanos":94361900,"millis":94.3619,"status":"passed"},"step":{"comments":["# Extracting object of id = 11"],"line":20,"prefix":"*","index":6,"text":"def temp = karate.jsonPath(response, \"$.data[?(@.id==\" + requiredId + \")]\")"}},{"result":{"nanos":1502900,"millis":1.5029,"status":"passed"},"step":{"line":21,"prefix":"*","index":7,"text":"match temp[0].id == requiredId"}}],"executorName":"main","line":9,"name":"Verifying get list and retrieving user with required id","description":"","durationMillis":808.9766,"startTime":1647094417354,"failed":false,"refId":"[1:9]","endTime":1647094418172,"exampleIndex":-1},{"sectionIndex":1,"stepResults":[{"result":{"nanos":451300,"millis":0.4513,"status":"passed"},"step":{"background":true,"line":4,"prefix":"*","index":0,"text":"def requiredId = 11"}},{"result":{"nanos":311400,"millis":0.3114,"status":"passed"},"step":{"background":true,"line":5,"prefix":"*","index":1,"text":"def pageNumber = 2"}},{"result":{"nanos":178700,"millis":0.1787,"status":"passed"},"step":{"background":true,"line":6,"prefix":"Given","index":2,"text":"url \"https:\/\/reqres.in\/api\/\""}},{"result":{"nanos":86300,"millis":0.0863,"status":"passed"},"step":{"background":true,"line":7,"prefix":"And","index":3,"text":"path \"users\""}},{"result":{"nanos":502900,"millis":0.5029,"status":"passed"},"step":{"line":24,"prefix":"Given","index":0,"text":"path requiredId"}},{"result":{"nanos":177008300,"millis":177.0083,"status":"passed"},"step":{"line":25,"prefix":"When","index":1,"text":"method get"},"stepLog":"14:13:38.184 request:\n1 > GET https:\/\/reqres.in\/api\/users\/11\n1 > Host: reqres.in\n1 > Connection: Keep-Alive\n1 > User-Agent: Apache-HttpClient\/4.5.13 (Java\/1.8.0_161)\n1 > Accept-Encoding: gzip,deflate\n\n\n14:13:38.360 response time in milliseconds: 176\n1 < 200\n1 < Date: Sat, 12 Mar 2022 14:13:38 GMT\n1 < Content-Type: application\/json; charset=utf-8\n1 < Transfer-Encoding: chunked\n1 < Connection: keep-alive\n1 < X-Powered-By: Express\n1 < Access-Control-Allow-Origin: *\n1 < Etag: W\/\"11e-\/ce0hUxrHiq225jAM88pfKCXCL4\"\n1 < Via: 1.1 vegur\n1 < Cache-Control: max-age=14400\n1 < CF-Cache-Status: HIT\n1 < Age: 3646\n1 < Expect-CT: max-age=604800, report-uri=\"https:\/\/report-uri.cloudflare.com\/cdn-cgi\/beacon\/expect-ct\"\n1 < Report-To: {\"endpoints\":[{\"url\":\"https:\\\/\\\/a.nel.cloudflare.com\\\/report\\\/v3?s=BBkawbEsJ1Eq6WhWhBskGubrz7aTf%2BYepA8YaBxsLREL9IvYlAamUKfb5Ku0oepp8UfIjZA29%2F6ZU1fls7%2B1dPILYw8%2FRwjD4u%2F76PaRbYqLmHsOvnn17BO5tO8%3D\"}],\"group\":\"cf-nel\",\"max_age\":604800}\n1 < NEL: {\"success_fraction\":0,\"report_to\":\"cf-nel\",\"max_age\":604800}\n1 < Vary: Accept-Encoding\n1 < Server: cloudflare\n1 < CF-RAY: 6ead21b2efd34055-CDG\n1 < alt-svc: h3=\":443\"; ma=86400, h3-29=\":443\"; ma=86400\n{\"data\":{\"id\":11,\"email\":\"george.edwards@reqres.in\",\"first_name\":\"George\",\"last_name\":\"Edwards\",\"avatar\":\"https:\/\/reqres.in\/img\/faces\/11-image.jpg\"},\"support\":{\"url\":\"https:\/\/reqres.in\/#support-heading\",\"text\":\"To keep ReqRes free, contributions towards server costs are appreciated!\"}}\n"},{"result":{"nanos":7900,"millis":0.0079,"status":"passed"},"step":{"line":26,"prefix":"Then","index":2,"text":"status 200"}},{"result":{"nanos":830400,"millis":0.8304,"status":"passed"},"step":{"comments":["# Assertions"],"line":29,"prefix":"And","index":3,"text":"match response.data == \"#object\""}},{"result":{"nanos":552000,"millis":0.552,"status":"passed"},"step":{"line":30,"prefix":"And","index":4,"text":"match response.data.id == requiredId"}},{"result":{"nanos":532100,"millis":0.5321,"status":"passed"},"step":{"line":31,"prefix":"And","index":5,"text":"match response.data.email == \"#present\""}},{"result":{"nanos":381800,"millis":0.3818,"status":"passed"},"step":{"line":32,"prefix":"And","index":6,"text":"match response.data.first_name == \"#present\""}},{"result":{"nanos":292400,"millis":0.2924,"status":"passed"},"step":{"line":33,"prefix":"And","index":7,"text":"match response.data.last_name == \"#present\""}},{"result":{"nanos":314700,"millis":0.3147,"status":"passed"},"step":{"line":34,"prefix":"And","index":8,"text":"match response.data.avatar == \"#present\""}},{"result":{"nanos":613800,"millis":0.6138,"status":"passed"},"step":{"comments":["# Bonus: Checking that the get single user sends the same user as get users list.","# I added bonus to this scenario cause it is a nice extra check for testing get","# single user request and to avoid duplicating code in a bonus separate scenario"],"line":39,"prefix":"*","index":9,"text":"def temp = response.data"}},{"result":{"nanos":87900,"millis":0.0879,"status":"passed"},"step":{"line":40,"prefix":"Given","index":10,"text":"path \"users\""}},{"result":{"nanos":181800,"millis":0.1818,"status":"passed"},"step":{"line":41,"prefix":"And","index":11,"text":"param page = pageNumber"}},{"result":{"nanos":174648400,"millis":174.6484,"status":"passed"},"step":{"line":42,"prefix":"When","index":12,"text":"method get"},"stepLog":"14:13:38.366 request:\n2 > GET https:\/\/reqres.in\/api\/users?page=2\n2 > Host: reqres.in\n2 > Connection: Keep-Alive\n2 > User-Agent: Apache-HttpClient\/4.5.13 (Java\/1.8.0_161)\n2 > Accept-Encoding: gzip,deflate\n\n\n14:13:38.539 response time in milliseconds: 172\n2 < 200\n2 < Date: Sat, 12 Mar 2022 14:13:38 GMT\n2 < Content-Type: application\/json; charset=utf-8\n2 < Transfer-Encoding: chunked\n2 < Connection: keep-alive\n2 < X-Powered-By: Express\n2 < Access-Control-Allow-Origin: *\n2 < Etag: W\/\"406-ut0vzoCuidvyMf8arZpMpJ6ZRDw\"\n2 < Via: 1.1 vegur\n2 < Cache-Control: max-age=14400\n2 < CF-Cache-Status: HIT\n2 < Age: 1218\n2 < Expect-CT: max-age=604800, report-uri=\"https:\/\/report-uri.cloudflare.com\/cdn-cgi\/beacon\/expect-ct\"\n2 < Report-To: {\"endpoints\":[{\"url\":\"https:\\\/\\\/a.nel.cloudflare.com\\\/report\\\/v3?s=to9fj93Q80AS0%2FJMbB9NXN1Tz32ilotoZfAq9chdiMr66pqr2STjNVGgTp566MGJzjvHWPvx41kxpaZFoDDBYmvg4aazgJxJfuB59OQJjKZArHQDdGXNEgPbTic%3D\"}],\"group\":\"cf-nel\",\"max_age\":604800}\n2 < NEL: {\"success_fraction\":0,\"report_to\":\"cf-nel\",\"max_age\":604800}\n2 < Vary: Accept-Encoding\n2 < Server: cloudflare\n2 < CF-RAY: 6ead21b3f8143ba3-CDG\n2 < alt-svc: h3=\":443\"; ma=86400, h3-29=\":443\"; ma=86400\n{\"page\":2,\"per_page\":6,\"total\":12,\"total_pages\":2,\"data\":[{\"id\":7,\"email\":\"michael.lawson@reqres.in\",\"first_name\":\"Michael\",\"last_name\":\"Lawson\",\"avatar\":\"https:\/\/reqres.in\/img\/faces\/7-image.jpg\"},{\"id\":8,\"email\":\"lindsay.ferguson@reqres.in\",\"first_name\":\"Lindsay\",\"last_name\":\"Ferguson\",\"avatar\":\"https:\/\/reqres.in\/img\/faces\/8-image.jpg\"},{\"id\":9,\"email\":\"tobias.funke@reqres.in\",\"first_name\":\"Tobias\",\"last_name\":\"Funke\",\"avatar\":\"https:\/\/reqres.in\/img\/faces\/9-image.jpg\"},{\"id\":10,\"email\":\"byron.fields@reqres.in\",\"first_name\":\"Byron\",\"last_name\":\"Fields\",\"avatar\":\"https:\/\/reqres.in\/img\/faces\/10-image.jpg\"},{\"id\":11,\"email\":\"george.edwards@reqres.in\",\"first_name\":\"George\",\"last_name\":\"Edwards\",\"avatar\":\"https:\/\/reqres.in\/img\/faces\/11-image.jpg\"},{\"id\":12,\"email\":\"rachel.howell@reqres.in\",\"first_name\":\"Rachel\",\"last_name\":\"Howell\",\"avatar\":\"https:\/\/reqres.in\/img\/faces\/12-image.jpg\"}],\"support\":{\"url\":\"https:\/\/reqres.in\/#support-heading\",\"text\":\"To keep ReqRes free, contributions towards server costs are appreciated!\"}}\n"},{"result":{"nanos":10700,"millis":0.0107,"status":"passed"},"step":{"line":43,"prefix":"Then","index":13,"text":"status 200"}},{"result":{"nanos":772500,"millis":0.7725,"status":"passed"},"step":{"line":44,"prefix":"And","index":14,"text":"match response.data contains deep temp"}}],"executorName":"main","line":23,"name":"Verifying get single user with required id + bonus: comparing with user from get list","description":"","durationMillis":357.7653,"startTime":1647094418182,"failed":false,"refId":"[2:23]","endTime":1647094418541,"exampleIndex":-1},{"sectionIndex":2,"stepResults":[{"result":{"nanos":294800,"millis":0.2948,"status":"passed"},"step":{"background":true,"line":4,"prefix":"*","index":0,"text":"def requiredId = 11"}},{"result":{"nanos":255500,"millis":0.2555,"status":"passed"},"step":{"background":true,"line":5,"prefix":"*","index":1,"text":"def pageNumber = 2"}},{"result":{"nanos":188200,"millis":0.1882,"status":"passed"},"step":{"background":true,"line":6,"prefix":"Given","index":2,"text":"url \"https:\/\/reqres.in\/api\/\""}},{"result":{"nanos":149100,"millis":0.1491,"status":"passed"},"step":{"background":true,"line":7,"prefix":"And","index":3,"text":"path \"users\""}},{"result":{"nanos":7748400,"millis":7.7484,"status":"passed"},"step":{"line":47,"prefix":"*","index":0,"text":"def payload = read(\"..\/testData\/userPostRequest.json\")"}},{"result":{"nanos":1688700,"millis":1.6887,"status":"passed"},"step":{"line":48,"prefix":"*","index":1,"text":"def responseSchema = read(\"..\/testData\/postResponseSchema.json\")"}},{"result":{"nanos":256500,"millis":0.2565,"status":"passed"},"step":{"line":49,"prefix":"Given","index":2,"text":"request payload"}},{"result":{"nanos":1255443900,"millis":1255.4439,"status":"passed"},"step":{"line":50,"prefix":"When","index":3,"text":"method post"},"stepLog":"14:13:38.590 request:\n1 > POST https:\/\/reqres.in\/api\/users\n1 > Content-Type: application\/json; charset=UTF-8\n1 > Content-Length: 30\n1 > Host: reqres.in\n1 > Connection: Keep-Alive\n1 > User-Agent: Apache-HttpClient\/4.5.13 (Java\/1.8.0_161)\n1 > Accept-Encoding: gzip,deflate\n{\"name\":\"Peter\",\"job\":\"Sales\"}\n\n14:13:39.812 response time in milliseconds: 1222\n1 < 201\n1 < Date: Sat, 12 Mar 2022 14:13:39 GMT\n1 < Content-Type: application\/json; charset=utf-8\n1 < Content-Length: 80\n1 < Connection: keep-alive\n1 < X-Powered-By: Express\n1 < Access-Control-Allow-Origin: *\n1 < Etag: W\/\"50-nsbDBTsnJVl5oLC+Upoxs97wnfw\"\n1 < Via: 1.1 vegur\n1 < CF-Cache-Status: DYNAMIC\n1 < Expect-CT: max-age=604800, report-uri=\"https:\/\/report-uri.cloudflare.com\/cdn-cgi\/beacon\/expect-ct\"\n1 < Report-To: {\"endpoints\":[{\"url\":\"https:\\\/\\\/a.nel.cloudflare.com\\\/report\\\/v3?s=ggW5xfwazLyNUQ9JHjqJtf02aNjCo%2FbffOG%2FsRKQxV%2Fjmkp2QwcjqEgNhlKP0OvVHPUhG6Xee4wLbmAg%2BFXZ%2FVQFQdPvfF1dAdux7uLrrNTPzhEgl%2BKnIbdElv4%3D\"}],\"group\":\"cf-nel\",\"max_age\":604800}\n1 < NEL: {\"success_fraction\":0,\"report_to\":\"cf-nel\",\"max_age\":604800}\n1 < Server: cloudflare\n1 < CF-RAY: 6ead21b56c24331c-CDG\n1 < alt-svc: h3=\":443\"; ma=86400, h3-29=\":443\"; ma=86400\n{\"name\":\"Peter\",\"job\":\"Sales\",\"id\":\"291\",\"createdAt\":\"2022-03-12T14:13:39.828Z\"}\n"},{"result":{"nanos":7000,"millis":0.007,"status":"passed"},"step":{"line":51,"prefix":"Then","index":4,"text":"status 201"}},{"result":{"nanos":558800,"millis":0.5588,"status":"passed"},"step":{"comments":["# Assertions"],"line":54,"prefix":"And","index":5,"text":"match response.id == \"#present\""}},{"result":{"nanos":379600,"millis":0.3796,"status":"passed"},"step":{"line":55,"prefix":"And","index":6,"text":"match response.createdAt == \"#present\""}},{"result":{"nanos":742200,"millis":0.7422,"status":"passed"},"step":{"line":56,"prefix":"And","index":7,"text":"match response == responseSchema"}},{"result":{"nanos":250900,"millis":0.2509,"status":"passed"},"step":{"line":57,"prefix":"And","index":8,"text":"match response contains payload"}},{"result":{"nanos":4557000,"millis":4.557,"status":"passed"},"step":{"line":58,"prefix":"*","index":9,"text":"print response"},"stepLog":"14:13:39.818 [print] {\n  \"name\": \"Peter\",\n  \"job\": \"Sales\",\n  \"id\": \"291\",\n  \"createdAt\": \"2022-03-12T14:13:39.828Z\"\n}\n \n"}],"executorName":"main","line":46,"name":"Verifying post create user","description":"","durationMillis":1272.5206,"startTime":1647094418546,"failed":false,"refId":"[3:46]","endTime":1647094419820,"exampleIndex":-1}],"callDepth":0,"name":"Karate API technical test - Users scenarios","description":"","resultDate":"2022-03-12 02:13:39 PM","durationMillis":2439.2625,"passedCount":3}